[{
  "relation": ["delegate_permission/common.handle_all_urls"],
  "target": {
    "namespace": "android_app",
    "package_name": "app.mads.hu",
    "sha256_cert_fingerprints":
    ["57:71:3E:73:3F:64:70:5B:D7:84:2F:47:FF:52:40:A2:DC:CE:F0:31:1A:D0:83:24:79:7E:1A:77:84:83:4C:D4"]
  }
}]
