{
    "name": "PostDeliveryType",
    "alias": "postdeliverytype",
    "description": "",
    "keywords": [],
    "active": 1,
    "order": 0,
    "providers": [
        "Modules\\PostDeliveryType\\Providers\\PostDeliveryTypeServiceProvider"
    ],
    "aliases": {},
    "files": [

    ],
    "requires": []
}
