{
    "name": "Message",
    "alias": "message",
    "description": "",
    "keywords": [],
    "active": 1,
    "order": 0,
    "providers": [
        "Modules\\Message\\Providers\\MessageServiceProvider"
    ],
    "aliases": {},
    "files": [

    ],
    "requires": []
}
