{
    "0": {
        "title": "Manna",
        "content": null,
        "slug": "manna"
    },
    "1": {
        "title": "Azonnal dolgozni akarok",
        "content": "http:\/\/sirius.mads.hu\/storage\/public\/files\/public\/files\/munka-kategoriak\/hostess.jpg",
        "slug": "azonnal-dolgozni-akarok"
    },
    "2": {
        "title": "Fizikai",
        "content": "http:\/\/sirius.mads.hu\/storage\/public\/files\/public\/files\/munka-kategoriak\/Fizikai.jpg",
        "slug": "fizikai"
    },
    "3": {
        "title": "Telefonos",
        "content": "http:\/\/sirius.mads.hu\/storage\/public\/files\/public\/files\/munka-kategoriak\/BK.jpg",
        "slug": "telefonos"
    },
    "5": {
        "title": "Informatikai",
        "content": "http:\/\/sirius.mads.hu\/storage\/public\/files\/public\/files\/munka-kategoriak\/informatika.jpg",
        "slug": "informatikai"
    },
    "6": {
        "title": "Gyakornoki",
        "content": "http:\/\/sirius.mads.hu\/storage\/public\/files\/public\/files\/munka-kategoriak\/bolti.jpg",
        "slug": "gyakornoki"
    },
    "7": {
        "title": "Idegen nyelv\u0171",
        "content": "http:\/\/sirius.mads.hu\/storage\/public\/files\/public\/files\/munka-kategoriak\/Idegennyelv.jpg",
        "slug": "idegen-nyelvu"
    },
    "8": {
        "title": "Prom\u00f3ci\u00f3s",
        "content": "http:\/\/sirius.mads.hu\/storage\/public\/files\/public\/files\/munka-kategoriak\/hostess.jpg",
        "slug": "promocios"
    },
    "9": {
        "title": "Bolti munk\u00e1k",
        "content": "http:\/\/sirius.mads.hu\/storage\/public\/files\/public\/files\/munka-kategoriak\/Idegennyelv.jpg",
        "slug": "bolti-munkak"
    },
    "10": {
        "title": "Recepci\u00f3s",
        "content": "http:\/\/sirius.mads.hu\/storage\/public\/files\/public\/files\/munka-kategoriak\/bolti.jpg",
        "slug": "recepcios"
    },
    "11": {
        "title": "Egy\u00e9b",
        "content": "http:\/\/sirius.mads.hu\/storage\/public\/files\/public\/files\/munka-kategoriak\/egyeb.jpg",
        "slug": "egyeb"
    },
    "12": {
        "title": "Vend\u00e9gl\u00e1t\u00e1s",
        "content": "http:\/\/sirius.mads.hu\/storage\/public\/files\/public\/files\/munka-kategoriak\/hostess.jpg",
        "slug": "vendeglatas"
    },
    "13": {
        "title": "Douglas",
        "content": "http:\/\/sirius.mads.hu\/storage\/public\/files\/public\/files\/munka-kategoriak\/Idegennyelv.jpg",
        "slug": "douglas"
    },
    "14": {
        "title": "CCC",
        "content": "http:\/\/sirius.mads.hu\/storage\/public\/files\/public\/files\/munka-kategoriak\/KFC_logo2020_kraken.jpg",
        "slug": "ccc"
    },
    "15": {
        "title": "GLS",
        "content": null,
        "slug": "gls"
    },
    "16": {
        "title": "Techpromotion",
        "content": null,
        "slug": "techpromotion"
    },
    "17": {
        "title": "Starbucks",
        "content": "http:\/\/sirius.mads.hu\/storage\/public\/files\/public\/files\/munka-kategoriak\/Fizikai.jpg",
        "slug": "starbucks"
    },
    "18": {
        "title": "KFC",
        "content": "http:\/\/sirius.mads.hu\/storage\/public\/files\/public\/files\/munka-kategoriak\/KFC_logo2020_kraken.jpg",
        "slug": "kfc"
    },
    "19": {
        "title": "Pizza Hut",
        "content": "http:\/\/sirius.mads.hu\/storage\/public\/files\/public\/files\/munka-kategoriak\/k\u00f6z\u00f6s_logos.jpg",
        "slug": "pizza-hut"
    },
    "20": {
        "title": "Burger King",
        "content": "http:\/\/sirius.mads.hu\/storage\/public\/files\/public\/files\/munka-kategoriak\/BK.jpg",
        "slug": "burger-king"
    },
    "21": {
        "title": "Bellozzo",
        "content": "http:\/\/sirius.mads.hu\/storage\/public\/files\/public\/files\/munka-kategoriak\/informatika.jpg",
        "slug": "bellozzo"
    },
    "22": {
        "title": "Pizza Forte",
        "content": null,
        "slug": "pizza-forte"
    },
    "23": {
        "title": "Gyors\u00e9tterem",
        "content": "http:\/\/sirius.mads.hu\/storage\/public\/files\/public\/files\/munka-kategoriak\/hostess.jpg",
        "slug": "gyorsetterem"
    },
    "24": {
        "title": "Manna",
        "content": null,
        "slug": "manna"
    }
}
