{
    "name": "Country",
    "alias": "country",
    "description": "",
    "keywords": [],
    "active": 1,
    "order": 0,
    "providers": [
        "Modules\\Country\\Providers\\CountryServiceProvider"
    ],
    "aliases": {},
    "files": [

    ],
    "requires": []
}
