{
    "name": "InvoiceTransporter",
    "alias": "invoicetransporter",
    "description": "",
    "keywords": [],
    "active": 1,
    "order": 0,
    "providers": [
        "Modules\\InvoiceTransporter\\Providers\\InvoiceTransporterServiceProvider"
    ],
    "aliases": {},
    "files": [

    ],
    "requires": []
}
