{
    "name": "MonthlyOrders",
    "alias": "monthlyorders",
    "description": "",
    "keywords": [],
    "active": 1,
    "order": 0,
    "providers": [
        "Modules\\MonthlyOrders\\Providers\\MonthlyOrdersServiceProvider"
    ],
    "aliases": {},
    "files": [

    ],
    "requires": []
}
