{
    "name": "Attribute",
    "alias": "attribute",
    "description": "",
    "keywords": [],
    "active": 1,
    "order": 0,
    "providers": [
        "Modules\\Attribute\\Providers\\AttributeServiceProvider"
    ],
    "aliases": {},
    "files": [

    ],
    "requires": []
}
