{
    "name": "Work",
    "alias": "work",
    "description": "",
    "keywords": [],
    "active": 1,
    "order": 0,
    "providers": [
        "Modules\\Work\\Providers\\WorkServiceProvider"
    ],
    "aliases": {},
    "files": [

    ],
    "requires": []
}
